%YAML 1.1
%TAG !u! tag:unity3d.com,2011:
--- !u!114 &11400000
MonoBehaviour:
  m_ObjectHideFlags: 0
  m_CorrespondingSourceObject: {fileID: 0}
  m_PrefabInstance: {fileID: 0}
  m_PrefabAsset: {fileID: 0}
  m_GameObject: {fileID: 0}
  m_Enabled: 1
  m_EditorHideFlags: 0
  m_Script: {fileID: 11500000, guid: a0d3e2fcd636d0243820f1bebf6e167b, type: 3}
  m_Name: HoloBoard140034ScaleHandlesConfiguration
  m_EditorClassIdentifier: 
  handleMaterial: {fileID: 2100000, guid: 986558eab447a9847bbe138149edc1b4, type: 2}
  handleGrabbedMaterial: {fileID: 2100000, guid: bf37b5eab60b288498d02fd524325d10,
    type: 2}
  handlePrefab: {fileID: 1361136173122186969, guid: ba9083550f965e545a628b53bfa80c9e,
    type: 3}
  handleSize: 0.016
  colliderPadding: {x: 0.016, y: 0.016, z: 0.016}
  drawTetherWhenManipulating: 1
  handlesIgnoreCollider: {fileID: 0}
  handleSlatePrefab: {fileID: 1134031327877807717, guid: c45e552a6d92491468c421c35c5dd63d,
    type: 3}
  showScaleHandles: 1
