%YAML 1.1
%TAG !u! tag:unity3d.com,2011:
--- !u!114 &11400000
MonoBehaviour:
  m_ObjectHideFlags: 0
  m_CorrespondingSourceObject: {fileID: 0}
  m_PrefabInstance: {fileID: 0}
  m_PrefabAsset: {fileID: 0}
  m_GameObject: {fileID: 0}
  m_Enabled: 1
  m_EditorHideFlags: 0
  m_Script: {fileID: 11500000, guid: b80d41f9007c4b948b0808690195e77c, type: 3}
  m_Name: HoloBoard140034LinksConfiguration
  m_EditorClassIdentifier: 
  wireframeMaterial: {fileID: 2100000, guid: ac37c7c0a1a7e8646b4f9f3ab4a6bfd9, type: 2}
  wireframeEdgeRadius: 0.001
  wireframeShape: 0
  showWireframe: 0
