%YAML 1.1
%TAG !u! tag:unity3d.com,2011:
--- !u!114 &-5267604956347671975
MonoBehaviour:
  m_ObjectHideFlags: 0
  m_CorrespondingSourceObject: {fileID: 0}
  m_PrefabInstance: {fileID: 0}
  m_PrefabAsset: {fileID: 0}
  m_GameObject: {fileID: 0}
  m_Enabled: 1
  m_EditorHideFlags: 0
  m_Script: {fileID: 11500000, guid: ed912223f7b3af74d8e196b2a4e662b3, type: 3}
  m_Name: 
  m_EditorClassIdentifier: 
  DepthBufferFormat: 0
  UseSharedDepthBuffer: 0
--- !u!114 &-4355553967364488463
MonoBehaviour:
  m_ObjectHideFlags: 0
  m_CorrespondingSourceObject: {fileID: 0}
  m_PrefabInstance: {fileID: 0}
  m_PrefabAsset: {fileID: 0}
  m_GameObject: {fileID: 0}
  m_Enabled: 1
  m_EditorHideFlags: 0
  m_Script: {fileID: 11500000, guid: ed912223f7b3af74d8e196b2a4e662b3, type: 3}
  m_Name: 
  m_EditorClassIdentifier: 
  DepthBufferFormat: 0
  UseSharedDepthBuffer: 0
--- !u!114 &-4263890052642568053
MonoBehaviour:
  m_ObjectHideFlags: 0
  m_CorrespondingSourceObject: {fileID: 0}
  m_PrefabInstance: {fileID: 0}
  m_PrefabAsset: {fileID: 0}
  m_GameObject: {fileID: 0}
  m_Enabled: 1
  m_EditorHideFlags: 0
  m_Script: {fileID: 11500000, guid: 3a6c5bd16b42a1542ad52d1d47746bdb, type: 3}
  m_Name: 
  m_EditorClassIdentifier: 
  UsePrimaryWindowForDisplay: 1
  HolographicRemoting: 0
--- !u!114 &11400000
MonoBehaviour:
  m_ObjectHideFlags: 0
  m_CorrespondingSourceObject: {fileID: 0}
  m_PrefabInstance: {fileID: 0}
  m_PrefabAsset: {fileID: 0}
  m_GameObject: {fileID: 0}
  m_Enabled: 1
  m_EditorHideFlags: 0
  m_Script: {fileID: 11500000, guid: e679265d16d650945812b915bb9d5cc3, type: 3}
  m_Name: Windows MR Package Settings
  m_EditorClassIdentifier: 
  Keys: 0e00000001000000
  Values:
  - {fileID: -5267604956347671975}
  - {fileID: -4355553967364488463}
  BuildValues:
  - {fileID: -4263890052642568053}
--- !u!114 &5333605659342657023
MonoBehaviour:
  m_ObjectHideFlags: 0
  m_CorrespondingSourceObject: {fileID: 0}
  m_PrefabInstance: {fileID: 0}
  m_PrefabAsset: {fileID: 0}
  m_GameObject: {fileID: 0}
  m_Enabled: 1
  m_EditorHideFlags: 0
  m_Script: {fileID: 11500000, guid: ed912223f7b3af74d8e196b2a4e662b3, type: 3}
  m_Name: 
  m_EditorClassIdentifier: 
  DepthBufferFormat: 0
  UseSharedDepthBuffer: 1
