0,7264
0,7260262
0,7248976
0,7230035
0,7203334
0,7168764
0,712622
0,7075598
0,7016785
0,694968
0,6874175
0,6790161
0,6697534
0,6596187
0,6486013
0,6366904
0,6238757
0,6101462
0,5954915
0,5799007
0,5633632
0,5458685
0,5274058
0,5079645
0,4875339
0,4661033
0,4436621
0,4201997
0,3957053
0,3701683
0,3435781
0,315924
0,2871954
0,2573814
0,2264717
0,2538
0,2554372
0,2605959
0,2696069
0,2827467
0,3002384
0,3222509
0,3488996
0,3802458
0,4162974
0,457008
0,5022775
0,5519521
0,6058245
0,6636328
0,7250617
0,7897422
0,8572515
0,9271126
0,9987948
1,071714
1,145232
1,218656
1,291241
1,362187
1,430641
1,495695
1,556387
1,611704
1,660576
1,70188
1,734441
1,757027
1,768355
1,767087
1,7694
1,768396
1,765303
1,760013
1,752435
1,742497
1,73014
1,715324
1,698027
1,678243
1,655981
1,63127
1,604155
1,574697
1,542974
1,509082
1,473133
1,435256
1,395599
1,354323
1,31161
1,267655
1,222673
1,176895
1,130569
1,083959
1,037347
0,9910316
0,9453286
0,9005701
0,8571056
0,8153016
0,7755412
0,7382247
0,7037691
