0,8789
0,8781618
0,8759294
0,8721768
0,8668771
0,8600044
0,8515322
0,8414341
0,8296837
0,8162549
0,8011212
0,784256
0,7656331
0,7452264
0,7230094
0,6989555
0,6730385
0,6452321
0,61551
0,5838457
0,5502129
0,5145853
0,4769364
0,4372399
0,3954695
0,3515988
0,3056014
0,2574511
0,2071214
0,1545859
0,0998184
0,04279245
-0,01651831
-0,07814021
-0,1420996
-0,1125
-0,1096644
-0,1018481
-0,08985894
-0,07444035
-0,05627201
-0,03596931
-0,01408367
0,008897643
0,03255137
0,05651842
0,08050373
0,1042763
0,1276693
0,1505799
0,1729694
0,1948631
0,2163505
0,237585
0,2587843
0,2802302
0,3022683
0,3253084
0,3498246
0,3763549
0,4055013
0,43793
0,4743713
0,5156195
0,5625331
0,6160345
0,6771104
0,7468113
0,826252
0,9166114
0,8551
0,8554493
0,8566102
0,8587304
0,8619277
0,866291
0,8718793
0,8787228
0,8868216
0,8961469
0,9066404
0,9182139
0,9307504
0,9441035
0,9580971
0,9725251
0,9871534
1,001717
1,015924
1,029449
1,04194
1,053016
1,062265
1,069246
1,07349
1,074496
1,071736
1,064651
1,052654
1,035126
1,011422
0,9808658
0,9427514
0,8963441
0,8408795
